<?xml version="1.0" standalone="no"?>
<!DOCTYPE svg PUBLIC "-//W3C//DTD SVG 20010904//EN"
 "http://www.w3.org/TR/2001/REC-SVG-20010904/DTD/svg10.dtd">
<svg version="1.0" xmlns="http://www.w3.org/2000/svg"
 width="512.000000pt" height="512.000000pt" viewBox="0 0 512.000000 512.000000"
 preserveAspectRatio="xMidYMid meet">
<metadata>
Created by potrace 1.11, written by Peter Selinger 2001-2013
</metadata>
<g transform="translate(0.000000,512.000000) scale(0.100000,-0.100000)"
fill="#000000" stroke="none">
<path d="M2106 4465 c-4 -12 -26 -15 -111 -15 -87 0 -105 -3 -105 -15 0 -8 -7
-15 -15 -15 -8 0 -15 -7 -15 -15 0 -8 -7 -15 -15 -15 -8 0 -15 -7 -15 -15 0
-8 -7 -15 -15 -15 -8 0 -15 -7 -15 -15 0 -8 -7 -15 -15 -15 -8 0 -15 -7 -15
-15 0 -8 -7 -15 -15 -15 -8 0 -15 -7 -15 -15 0 -8 -7 -15 -15 -15 -8 0 -15 -7
-15 -15 0 -8 -7 -15 -15 -15 -8 0 -15 -6 -15 -13 0 -7 -13 -24 -29 -38 -17
-15 -33 -38 -37 -53 -3 -14 -10 -26 -14 -26 -4 0 -11 -11 -14 -25 -4 -14 -10
-25 -15 -25 -5 0 -13 -14 -16 -32 -4 -17 -14 -38 -21 -46 -8 -7 -14 -22 -14
-32 0 -10 -5 -20 -10 -22 -6 -2 -13 -21 -17 -43 -3 -22 -11 -43 -17 -47 -6 -4
-12 -40 -14 -80 -3 -40 -9 -76 -16 -80 -7 -5 -12 -70 -14 -195 -3 -124 -8
-193 -15 -202 -9 -10 -13 -121 -15 -383 -2 -202 -7 -366 -11 -363 -14 8 -21
-142 -21 -457 l0 -308 29 0 c16 0 31 6 35 15 3 10 19 15 46 15 29 0 40 4 40
15 0 11 12 15 45 15 33 0 45 4 45 15 0 10 11 15 35 15 24 0 35 5 35 15 0 11
12 15 45 15 33 0 45 4 45 15 0 11 12 15 45 15 33 0 45 4 45 15 0 8 7 15 15 15
13 0 15 49 15 385 0 336 2 385 15 385 13 0 15 -56 15 -445 l0 -445 200 0 200
0 0 30 c0 20 -5 30 -15 30 -10 0 -15 10 -15 30 0 19 -5 30 -14 30 -8 0 -16 16
-20 41 -4 23 -13 48 -21 56 -8 8 -15 23 -15 34 0 10 -4 19 -10 19 -5 0 -10 6
-10 13 0 20 -38 47 -66 47 -14 0 -34 5 -45 10 -18 10 -19 25 -19 335 0 178 4
326 8 329 5 3 18 2 30 -1 22 -5 22 -6 22 -297 0 -160 3 -301 6 -313 5 -19 13
-23 46 -23 31 0 41 -4 45 -20 3 -11 9 -20 13 -20 5 0 11 -13 15 -30 4 -17 11
-30 16 -30 5 0 12 -18 15 -39 4 -22 13 -42 20 -45 8 -3 14 -19 14 -36 0 -20 5
-30 15 -30 10 0 15 -10 15 -30 0 -20 5 -30 15 -30 10 0 15 -10 15 -29 0 -16 6
-31 15 -35 8 -3 15 -16 15 -30 0 -13 7 -26 15 -30 9 -3 15 -18 15 -36 0 -20 5
-30 15 -30 10 0 15 -10 15 -30 0 -27 3 -30 30 -30 17 0 30 -4 30 -8 0 -5 197
-12 437 -16 241 -4 440 -10 443 -15 7 -10 761 -24 776 -14 6 5 15 19 19 33 4
13 14 30 21 38 8 7 14 22 14 33 0 10 4 19 9 19 5 0 12 13 16 30 4 16 10 30 15
30 5 0 11 13 15 30 4 16 10 30 15 30 5 0 11 14 15 30 4 17 11 30 16 30 6 0 8
4 4 9 -3 5 -1 12 5 16 5 3 10 19 10 36 0 19 5 29 15 29 10 0 15 10 15 30 0 20
5 30 15 30 10 0 15 10 15 30 0 24 4 30 23 30 12 0 32 3 45 6 l22 6 0 283 0
283 23 6 c12 3 25 6 30 6 4 0 7 -139 7 -310 l0 -310 -45 0 c-33 0 -45 -4 -45
-15 0 -8 -7 -15 -15 -15 -10 0 -15 -10 -15 -30 0 -20 -5 -30 -15 -30 -10 0
-15 -10 -15 -30 0 -20 -5 -30 -15 -30 -10 0 -15 -10 -15 -29 0 -16 -3 -36 -6
-45 -5 -14 5 -16 75 -16 l81 0 0 45 0 45 60 0 60 0 0 210 c0 180 -2 210 -15
210 -8 0 -15 7 -15 15 0 9 -7 18 -15 21 -12 5 -15 34 -15 170 0 139 2 164 15
164 12 0 15 14 15 64 0 44 5 69 15 80 8 8 15 19 15 24 0 6 -7 12 -15 16 -10 3
-15 19 -15 45 0 25 -5 41 -15 45 -12 4 -15 25 -15 101 0 53 -4 94 -9 91 -14
-9 -21 33 -21 137 0 79 -3 97 -15 97 -12 0 -15 17 -15 95 l0 95 30 0 c20 0 30
-5 30 -15 0 -8 7 -15 15 -15 8 0 15 9 15 21 0 11 -4 17 -10 14 -5 -3 -10 -2
-10 3 0 5 -22 12 -50 16 l-50 7 0 74 c0 60 -3 75 -15 75 -10 0 -15 10 -15 30
0 20 -5 30 -15 30 -8 0 -15 7 -15 15 0 8 -7 15 -15 15 -8 0 -15 7 -15 15 0 8
-7 15 -15 15 -10 0 -15 10 -15 30 0 20 -5 30 -15 30 -12 0 -15 14 -15 64 0 44
-5 69 -15 80 -8 8 -15 24 -15 35 0 31 -101 131 -133 131 -14 0 -27 5 -29 12
-3 7 -32 14 -73 16 -40 3 -75 10 -83 18 -8 9 -36 14 -77 14 -41 0 -65 4 -67
12 -3 8 -34 14 -89 16 -48 3 -87 9 -91 16 -4 7 -48 12 -110 15 -63 2 -106 7
-110 15 -5 7 -57 12 -153 14 -117 3 -145 6 -145 18 0 12 -42 14 -260 14 -224
0 -260 2 -260 15 0 23 -535 23 -544 0z m336 -459 c4 -6 78 -12 195 -14 124 -3
190 -8 195 -16 5 -7 72 -12 200 -15 130 -2 195 -7 200 -15 5 -7 69 -12 199
-14 149 -3 195 -7 206 -18 11 -11 53 -14 198 -14 153 0 184 -2 189 -15 4 -12
31 -15 156 -15 127 0 150 -2 150 -15 0 -10 10 -15 30 -15 20 0 30 -5 30 -15 0
-8 7 -15 15 -15 8 0 15 -6 15 -14 0 -8 7 -16 15 -20 12 -4 15 -24 15 -91 0
-69 3 -85 15 -85 12 0 15 -19 15 -110 0 -91 3 -110 15 -110 12 0 15 -18 15
-105 0 -86 3 -105 15 -105 11 0 15 -21 17 -107 2 -80 6 -107 16 -105 9 1 12
-23 12 -94 l0 -97 -251 5 c-157 3 -253 8 -257 15 -4 6 -99 12 -251 16 -134 3
-246 9 -250 15 -3 5 -118 12 -255 16 -137 3 -254 10 -260 15 -6 4 -123 11
-261 15 -137 4 -252 11 -255 15 -3 5 -113 12 -245 16 -132 4 -245 11 -250 15
-6 5 -26 10 -45 12 -31 4 -35 8 -38 36 -2 20 -9 32 -18 32 -12 0 -14 70 -14
485 0 424 2 485 15 485 8 0 15 7 15 15 0 8 7 15 15 15 8 0 15 6 15 14 0 8 8
16 18 19 36 9 437 -6 444 -17z m-672 -211 c0 -33 -4 -45 -15 -45 -8 0 -15 -6
-15 -14 0 -8 7 -16 15 -20 13 -5 15 -53 15 -355 0 -297 -2 -352 -15 -365 -8
-8 -15 -26 -15 -39 0 -20 -6 -27 -30 -32 -16 -4 -30 -10 -30 -15 0 -5 -13 -11
-30 -15 -16 -4 -30 -11 -30 -16 0 -5 -16 -9 -35 -9 -19 0 -35 5 -35 10 0 6 -6
10 -14 10 -25 0 -46 30 -46 65 0 18 -6 36 -12 39 -10 5 -10 7 0 12 9 4 12 71
12 284 0 216 3 282 13 292 7 7 16 21 20 31 3 9 13 17 22 17 8 0 15 7 15 15 0
8 7 15 15 15 8 0 15 7 15 15 0 8 7 15 15 15 8 0 15 7 15 15 0 8 7 15 15 15 8
0 15 7 15 15 0 8 7 15 15 15 8 0 15 7 15 15 0 8 7 15 15 15 8 0 15 7 15 15 0
8 7 15 15 15 8 0 15 7 15 15 0 8 7 15 15 15 11 0 15 -12 15 -45z m680 -1434
c0 -4 201 -10 446 -13 287 -3 448 -8 452 -15 5 -6 169 -12 457 -16 298 -4 451
-10 453 -17 2 -5 23 -10 47 -10 56 0 75 -8 75 -31 0 -34 -36 -59 -84 -59 -25
0 -47 4 -50 8 -3 5 -207 12 -453 16 -246 4 -450 11 -453 15 -3 5 -204 12 -447
16 -244 4 -443 11 -443 16 0 5 -19 9 -42 9 -67 0 -88 9 -88 37 0 39 20 52 78
53 28 0 52 -4 52 -9z m112 -181 c2 -6 171 -14 433 -20 237 -5 495 -14 575 -19
80 -5 274 -9 432 -10 l288 -1 6 -24 c4 -17 -1 -31 -16 -46 -22 -22 -23 -22
-410 -18 -294 2 -392 6 -402 16 -9 9 -101 12 -388 13 -206 0 -406 5 -445 10
-38 6 -95 12 -125 15 -98 8 -100 10 -100 54 l0 40 74 0 c41 0 76 -4 78 -10z
m654 -215 c16 -12 86 -14 442 -15 368 0 422 -2 422 -15 0 -12 14 -15 65 -15
72 0 83 -12 45 -50 -11 -11 -20 -24 -20 -30 0 -5 -14 -10 -31 -10 -16 0 -28 4
-25 9 3 5 -1 12 -10 15 -9 3 -209 6 -445 6 -260 0 -429 4 -429 9 0 13 8 13
-367 18 l-333 4 0 25 c0 13 -7 27 -15 30 -8 4 -15 12 -15 20 0 21 687 21 716
-1z m-364 -171 c37 -4 65 -10 63 -14 -3 -4 196 -9 442 -11 346 -3 447 -7 451
-16 3 -10 42 -13 153 -13 l149 0 0 -25 c0 -14 -9 -34 -20 -45 -18 -18 -33 -20
-158 -20 -82 0 -142 4 -148 10 -7 7 -168 13 -447 17 -241 3 -437 10 -437 15 0
4 -53 8 -117 8 -149 0 -163 4 -163 41 0 19 -5 29 -15 29 -8 0 -15 7 -15 15 0
12 17 15 98 15 53 0 127 -3 164 -6z"/>
<path d="M1710 3675 c0 -9 5 -15 11 -13 6 2 11 8 11 13 0 5 -5 11 -11 13 -6 2
-11 -4 -11 -13z"/>
<path d="M1680 3580 c0 -27 0 -53 0 -57 0 -5 -35 -10 -77 -13 l-78 -5 -1 -167
c-2 -138 1 -168 12 -168 8 0 14 -7 14 -15 0 -8 7 -15 15 -15 8 0 15 -7 15 -15
0 -11 12 -15 50 -15 49 0 50 -1 50 -30 0 -47 17 -35 24 16 8 60 8 311 -1 437
-6 101 -23 135 -23 47z"/>
<path d="M1710 3030 c0 -11 5 -20 10 -20 6 0 10 9 10 20 0 11 -4 20 -10 20 -5
0 -10 -9 -10 -20z"/>
<path d="M1506 4345 c-8 -8 -26 -15 -41 -15 -14 0 -28 -7 -31 -15 -4 -8 -17
-15 -30 -15 -14 0 -27 -7 -30 -15 -4 -8 -12 -15 -20 -15 -8 0 -14 -7 -14 -15
0 -8 -7 -15 -15 -15 -8 0 -15 -7 -15 -15 0 -8 -7 -15 -15 -15 -8 0 -15 -7 -15
-15 0 -8 -7 -15 -15 -15 -8 0 -15 -7 -15 -15 0 -9 -7 -18 -15 -21 -8 -4 -15
-17 -15 -30 0 -14 -6 -24 -14 -24 -9 0 -16 -12 -18 -32 -2 -20 -8 -32 -15 -30
-8 1 -13 -9 -13 -28 0 -18 -6 -33 -15 -36 -8 -4 -15 -17 -15 -30 0 -14 -7 -27
-15 -30 -8 -4 -15 -17 -15 -30 0 -14 -7 -27 -15 -30 -8 -4 -15 -17 -15 -30 0
-14 -7 -27 -15 -30 -8 -4 -15 -14 -15 -24 0 -10 -7 -25 -15 -34 -8 -8 -16 -26
-17 -40 -1 -14 -8 -26 -15 -26 -8 0 -13 -12 -13 -30 0 -17 -6 -33 -14 -36 -8
-3 -18 -19 -21 -35 -4 -16 -11 -29 -16 -29 -5 0 -9 -6 -9 -13 0 -7 -9 -29 -20
-50 -11 -20 -20 -42 -20 -48 0 -6 -7 -17 -15 -25 -8 -9 -15 -26 -15 -39 0 -12
-7 -25 -15 -29 -9 -3 -15 -18 -15 -36 0 -20 -5 -30 -15 -30 -10 0 -15 -10 -15
-30 0 -20 -5 -30 -15 -30 -10 0 -15 -10 -15 -30 0 -20 -5 -30 -15 -30 -10 0
-15 -10 -15 -30 0 -20 -5 -30 -15 -30 -10 0 -15 -10 -15 -30 0 -20 -5 -30 -15
-30 -10 0 -15 -11 -15 -35 0 -24 -5 -35 -15 -35 -10 0 -15 -10 -15 -30 0 -20
-5 -30 -15 -30 -10 0 -15 -10 -15 -30 0 -20 -5 -30 -15 -30 -10 0 -15 -10 -15
-30 0 -20 -5 -30 -15 -30 -10 0 -15 -10 -15 -30 0 -20 -5 -30 -15 -30 -9 0
-15 -9 -15 -22 0 -34 -11 -68 -20 -63 -4 3 -11 -11 -14 -30 -4 -19 -11 -35
-16 -35 -6 0 -10 -9 -10 -19 0 -11 -6 -26 -13 -33 -8 -7 -17 -26 -21 -41 -3
-15 -10 -27 -15 -27 -5 0 -12 -13 -16 -30 -4 -16 -11 -32 -16 -35 -12 -8 -12
-425 1 -425 5 0 10 -107 12 -269 2 -148 7 -273 11 -278 5 -4 14 0 21 10 7 9
25 17 39 17 14 0 32 7 41 15 8 8 28 15 45 15 21 0 31 5 31 15 0 11 11 15 40
15 22 0 42 6 47 13 4 8 26 17 47 20 22 4 42 10 45 15 3 5 24 12 46 15 22 4 41
11 43 16 2 6 20 13 39 17 20 4 48 13 62 20 14 8 34 14 43 14 9 0 18 5 20 10 2
6 21 13 43 17 22 3 43 10 46 15 3 5 25 12 48 15 25 4 41 11 41 19 0 10 14 14
45 14 33 0 45 4 45 15 0 8 7 15 15 15 13 0 15 113 15 955 0 842 2 955 15 955
12 0 15 16 15 80 0 64 3 80 15 80 11 0 15 13 16 53 1 28 1 55 0 60 0 4 6 7 14
7 10 0 15 10 15 30 0 18 6 33 15 36 8 4 15 18 15 34 0 16 7 35 15 44 8 8 15
22 15 30 0 9 5 16 11 16 5 0 7 5 4 10 -3 6 -1 10 4 10 6 0 11 7 11 15 0 9 6
18 14 21 8 3 17 16 20 30 4 13 11 24 16 24 6 0 10 7 10 15 0 9 7 18 15 21 8 4
15 12 15 20 0 8 7 14 15 14 8 0 15 3 15 8 0 4 3 17 6 30 6 21 3 22 -44 22 -32
0 -56 -6 -66 -15z"/>
<path d="M4640 3535 c0 -14 5 -25 10 -25 6 0 10 11 10 25 0 14 -4 25 -10 25
-5 0 -10 -11 -10 -25z"/>
<path d="M4670 3498 c0 -2 -1 -137 -3 -301 -1 -232 1 -297 11 -297 7 0 12 13
12 30 0 29 2 30 45 30 45 0 85 22 85 46 0 7 6 14 13 16 13 5 24 265 12 325
l-6 33 -74 0 -75 0 0 60 c0 33 -4 60 -10 60 -5 0 -10 -1 -10 -2z"/>
<path d="M1782 1854 c-6 -3 -10 -10 -6 -15 3 -5 -15 -9 -41 -9 -31 0 -47 -5
-51 -15 -4 -10 -20 -15 -50 -15 -32 0 -44 -4 -44 -15 0 -11 -12 -15 -45 -15
-31 0 -47 -5 -51 -15 -4 -9 -19 -15 -39 -15 -19 0 -40 -6 -47 -13 -7 -8 -31
-17 -53 -20 -22 -4 -41 -11 -43 -17 -2 -5 -10 -10 -18 -10 -11 0 -14 -17 -14
-75 0 -60 3 -75 15 -75 8 0 15 4 15 9 0 5 50 12 110 16 61 3 110 11 110 16 0
5 17 9 39 9 41 0 51 -13 51 -68 0 -13 4 -21 9 -18 10 6 21 -41 21 -89 0 -19 6
-35 12 -37 9 -3 14 -47 16 -149 3 -85 9 -147 15 -151 6 -3 12 -69 15 -157 l5
-151 1063 0 c939 0 1064 -2 1064 -15 0 -8 7 -15 15 -15 11 0 15 -12 15 -45 0
-33 4 -45 15 -45 8 0 15 -7 15 -15 0 -8 7 -15 15 -15 8 0 15 -7 15 -15 0 -9 9
-15 25 -15 14 0 28 -7 31 -15 5 -12 27 -15 110 -15 86 0 104 3 104 15 0 8 7
15 15 15 8 0 15 7 15 15 0 8 6 15 14 15 8 0 17 13 21 30 4 16 13 30 21 30 9 0
14 11 14 30 0 20 5 30 15 30 8 0 15 7 15 15 0 12 18 15 105 15 l105 0 1 100
c1 55 3 105 4 110 1 6 3 15 4 21 0 5 6 7 11 4 6 -4 10 20 10 64 0 48 5 74 15
85 23 22 23 596 0 596 -8 0 -15 7 -15 15 0 13 -20 15 -120 15 -112 0 -120 -1
-120 -19 0 -11 -7 -26 -15 -35 -8 -8 -15 -21 -15 -30 0 -8 -6 -21 -13 -28 -8
-7 -17 -26 -21 -41 -3 -15 -11 -27 -16 -27 -6 0 -10 -6 -10 -12 0 -26 -45
-107 -62 -111 -26 -7 -268 5 -268 13 0 4 -248 9 -552 12 -402 4 -553 8 -556
17 -3 8 -53 11 -168 11 -154 0 -164 1 -164 19 0 10 -7 21 -15 25 -8 3 -15 16
-15 30 0 14 -7 31 -15 40 -8 8 -15 24 -15 36 0 11 -7 23 -15 26 -9 4 -15 19
-15 35 0 17 -6 32 -15 35 -8 4 -15 12 -15 20 0 12 -38 14 -215 14 l-215 0 0
-350 c0 -303 -2 -350 -15 -350 -13 0 -15 51 -17 378 l-3 377 -45 2 c-25 1 -51
0 -58 -3z m644 -469 c4 -8 12 -15 19 -15 16 0 25 -22 25 -61 0 -19 5 -29 15
-29 10 0 15 -10 15 -30 0 -20 5 -30 15 -30 10 0 15 -10 15 -30 0 -20 -5 -30
-15 -30 -8 0 -15 -6 -15 -14 0 -21 -50 -26 -245 -21 -99 2 -195 4 -212 5 -29
0 -33 3 -33 25 0 14 -7 28 -15 31 -11 5 -15 23 -15 75 0 53 4 71 15 75 8 4 15
15 15 25 0 10 7 19 15 19 8 0 15 5 15 10 0 6 70 10 190 10 160 0 192 -2 196
-15z m2084 -30 c0 -8 9 -15 20 -15 13 0 18 -5 14 -15 -4 -9 0 -15 10 -15 18 0
17 -18 -1 -38 -8 -8 -13 -41 -13 -83 0 -55 -3 -69 -15 -69 -8 0 -15 -4 -15
-10 0 -6 -52 -10 -135 -10 -121 0 -138 2 -157 19 -17 16 -19 26 -13 58 4 21
11 41 17 44 5 3 12 25 15 48 3 22 10 41 14 41 5 0 9 7 9 15 0 8 9 15 20 15 11
0 20 7 20 15 0 12 18 15 105 15 87 0 105 -3 105 -15z m-1724 -24 c-3 -5 1 -12
10 -15 9 -3 294 -6 635 -6 l619 0 0 -60 c0 -33 -4 -60 -10 -60 -5 0 -10 -7
-10 -15 0 -13 -79 -15 -655 -15 -574 0 -656 2 -661 15 -4 8 -12 15 -20 15 -10
0 -14 13 -14 45 0 25 -4 45 -10 45 -5 0 -10 7 -10 15 0 8 5 15 10 15 6 0 10 7
10 15 0 12 13 15 56 15 30 0 53 -4 50 -9z m1066 -215 c14 0 30 -4 34 -8 4 -5
43 -8 86 -8 63 0 78 -3 78 -15 0 -8 -4 -15 -10 -15 -5 0 -12 -16 -16 -35 -3
-19 -12 -35 -19 -35 -7 0 -15 -6 -18 -12 -3 -10 -77 -12 -333 -11 -181 2 -465
3 -632 3 l-302 0 -6 29 c-4 17 -12 32 -20 35 -9 3 -14 21 -14 47 l0 42 573 -8
c314 -4 584 -8 599 -9z m-1622 -76 c11 -11 21 -30 23 -43 2 -20 -2 -22 -63
-25 -35 -2 -74 -1 -87 2 -25 7 -37 36 -28 66 5 17 15 20 71 20 51 0 68 -4 84
-20z m2280 -19 c0 -44 -12 -51 -90 -51 -59 0 -90 9 -90 26 0 8 4 14 10 14 5 0
12 11 16 25 6 24 10 25 80 25 l74 0 0 -39z"/>
<path d="M960 1503 c-9 -11 -16 -44 -18 -88 -3 -38 -9 -73 -14 -76 -11 -7 -11
-354 1 -377 4 -9 11 -34 14 -54 3 -23 16 -48 33 -63 26 -25 27 -25 222 -24
153 0 200 4 216 15 35 24 43 17 48 -43 3 -31 10 -59 16 -61 7 -2 12 -15 12
-28 0 -14 7 -27 15 -30 8 -4 15 -12 15 -20 0 -8 7 -14 15 -14 8 0 15 -7 15
-15 0 -8 7 -15 15 -15 8 0 15 -7 15 -15 0 -13 22 -15 140 -15 118 0 140 2 140
15 0 8 7 15 15 15 8 0 15 7 15 15 0 8 7 15 15 15 10 0 15 10 15 30 l0 30 -103
0 c-135 0 -134 0 -143 160 -4 66 -10 120 -14 120 -4 0 -9 79 -12 176 -3 103
-10 179 -16 183 -5 3 -13 33 -17 66 -8 57 -22 85 -44 85 -16 0 -51 -33 -51
-47 0 -7 -7 -13 -15 -13 -10 0 -15 -10 -15 -30 0 -20 -5 -30 -15 -30 -11 0
-15 -12 -15 -45 0 -33 -4 -45 -15 -45 -12 0 -15 -14 -15 -62 -1 -59 -2 -62
-16 -43 -17 22 -13 97 5 103 6 2 11 28 11 58 0 39 4 56 15 60 20 8 20 64 1 64
-8 0 -16 -4 -18 -9 -1 -4 -83 -11 -180 -14 -151 -5 -178 -4 -178 9 0 11 16 14
75 14 l75 0 0 30 0 30 -122 0 c-102 -1 -126 -4 -138 -17z m44 -95 c11 -42 7
-486 -5 -493 -17 -11 -23 2 -27 65 -2 33 -8 63 -13 66 -13 7 -11 234 1 234 6
0 10 24 10 53 0 58 8 97 20 97 4 0 10 -10 14 -22z m551 -155 c3 -15 12 -31 18
-35 17 -10 17 -296 1 -306 -7 -4 -14 -18 -15 -32 -3 -20 -11 -26 -36 -28 -20
-2 -33 1 -33 8 0 6 -7 18 -15 26 -12 13 -15 47 -15 179 0 132 3 166 15 179 8
8 15 19 15 25 0 6 13 11 29 11 23 0 30 -5 36 -27z"/>
<path d="M726 1445 c-4 -11 -22 -15 -74 -15 l-69 0 -6 -42 c-8 -67 -9 -283 -1
-333 l6 -45 88 0 c86 0 88 1 94 25 4 14 11 23 16 20 5 -3 10 12 12 32 3 33 6
38 28 39 61 2 57 -8 62 152 3 81 3 155 0 165 -4 14 -16 17 -77 17 -56 0 -74
-4 -79 -15z"/>
<path d="M490 1385 c0 -8 -7 -15 -15 -15 -13 0 -15 -22 -15 -135 0 -76 4 -135
9 -135 5 0 12 -13 16 -30 7 -33 19 -39 29 -14 8 20 8 308 0 328 -8 20 -24 21
-24 1z"/>
</g>
</svg>
